2 Data Visualization
…
install.packages("tidyverse")
library(tidyverse)
Question: do penguins with larger flippers weigh more or less than those with shorter flippers? Does it vary by race?
A Dataframe (DF) is a rectangular collection of variables (in the columns) and observations (in the rows); this is an example of tidy data.

palmerpenguins::penguins

penguins #prints DF
#> # A tibble: 344 × 8
#>   species island    bill_length_mm bill_depth_mm flippe…¹ body_…² sex    year
#>   <fct>   <fct>              <dbl>         <dbl>    <int>   <int> <fct> <int>
#> 1 Adelie  Torgersen           39.1          18.7      181    3750 male   2007
#> 2 Adelie  Torgersen           39.5          17.4      186    3800 fema…  2007
#> 3 Adelie  Torgersen           40.3          18        195    3250 fema…  2007
#> 4 Adelie  Torgersen           NA            NA         NA      NA <NA>   2007
#> 5 Adelie  Torgersen           36.7          19.3      193    3450 fema…  2007
#> 6 Adelie  Torgersen           39.3          20.6      190    3650 male   2007
#> # … with 338 more rows, and abbreviated variable names ¹flipper_length_mm,
#> #   ²body_mass_g
…
cut_interval(x, n = NULL, length = NULL, ...) #cuts discrete numerical data into defined categories (levels!)

.penguins |>
  count(x=cut_width(x=body_mass_g, length=200))
#> # A tibble: 19 × 2
#>   `cut_width(body_mass_g, 200)`     n
#>   <fct>                         <int>
#> 1 [2.7e+03,2.9e+03]                 7
#> 2 (2.9e+03,3.1e+03]                10
#> 3 (3.1e+03,3.3e+03]                23
#> 4 (3.3e+03,3.5e+03]                38
#> 5 (3.5e+03,3.7e+03]                39
#> 6 (3.7e+03,3.9e+03]                37
#> # … with 13 more rows
…
